Product Type,labels,Attribute 1,Attribute 1 Value,Attribute 1 Searchable:combinationUnique:sets ,Attribute 2,Attribute 2 Value,Attribute 2 Searchable:combinationUnique:sets ,Attribute 3,Attribute 3 Value,Attribute 3 Searchable:combinationUnique:sets ,Attribute 4,Attribute 4 Value,Attribute 4 Searchable:combinationUnique:sets ,Attribute 5,Attribute 5 Value,Attribute 5 Searchable:combinationUnique:sets 
ALUMINIO,aluminio,Nombre,TEXT,Searchable,Descripcion,,Searchable,Marca,REYNOLDS;TOTTUS;U-THIL,Searchable,Departamento,J0201-LAVADO Y MANTENIMIENTO,Searchable,Subclase,J0201010101-ALUMINIO,Searchable
BOLSAS_DE_BASURA,bolsas de basura,Nombre,TEXT,Searchable,Descripcion,,Searchable,Marca,TACHITOS;TOTTUS;PRECIO UNO,Searchable,Departamento,J0201-LAVADO Y MANTENIMIENTO,Searchable,Subclase,J0201010102-BOLSAS DE BASURA,Searchable
BOLSAS_PARA_ALIMENTOS,bolsas para alimentos,Nombre,TEXT,Searchable,Descripcion,,Searchable,Marca,ILKO;U-THIL;TOTTUS;ZIPLOC;REYNOLDS,Searchable,Departamento,J0201-LAVADO Y MANTENIMIENTO,Searchable,Subclase,J0201010103-BOLSAS PARA ALIMENTOS,Searchable
BOLSAS_REUTILIZABLES,bolsas reutilizables,Nombre,TEXT,Searchable,Descripcion,,Searchable,Marca,TOTTUS;DISNEY;PRECIO UNO,Searchable,Departamento,J0201-LAVADO Y MANTENIMIENTO,Searchable,Subclase,J0201010106-BOLSAS REUTILIZABLES,Searchable
CERAS,ceras,Nombre,TEXT,Searchable,Descripcion,,Searchable,Marca,TEKNO;SAPOLIO;EMPERATRIZ;PRECIO UNO;TOTTUS,Searchable,Departamento,J0201-LAVADO Y MANTENIMIENTO,Searchable,Subclase,J0201010201-CERA AUTOBRILLANTE;J0201010202-CERA CREMA/EN PASTA;J0201010203-CERA LIQUIDA;J0201010204-CERA AL AGUA,Searchable
CUIDADO_DEL_CALZADO,cuidado del calzado,Nombre,TEXT,Searchable,Descripcion,,Searchable,Marca,SAPOLIO;KIWI;NORHYGIENIC;YAK,Searchable,Departamento,J0201-LAVADO Y MANTENIMIENTO,Searchable,Subclase,J0201020301-BETUN;J0201020302-BETUN LIQUIDO;J0201020303-ACCESORIOS DE CALZADO,Searchable
DESCARTABLES,descartables,Nombre,TEXT,Searchable,Descripcion,,Searchable,Marca,TOTTUS;INTI;BRAZA;PRECIO UNO;PAMOLSA;CITRUS PUNCH BAMBU;R&G;ESSENTIAL EVERYDAY,Searchable,Departamento,J0201-LAVADO Y MANTENIMIENTO,Searchable,Subclase,J0201011002-PLATOS;J0201011005-PALITOS;J0201011001-VASOS;J0201011003-CUBIERTOS;J0201011004-MONDADIENTES;J0201011006-OTROS,Searchable
DESHUMEDECEDORES,deshumedecedores,Nombre,TEXT,Searchable,Descripcion,,Searchable,Marca,BOLASECA;SEKIN;AQUA TRAP,Searchable,Departamento,J0201-LAVADO Y MANTENIMIENTO,Searchable,Subclase,J0201010404-DESHUMEDECEDORES,Searchable
DESODORANTES_AMBIENTALES,desodorantes ambientales,Nombre,TEXT,Searchable,Descripcion,,Searchable,Marca,GLADE;TOTTUS;FEBREZE;SAPOLIO;RENUZIT;AIR WICK;FRESH SCENTS;DESODORIZADOR DE REFRIGERADOR,Searchable,Departamento,J0201-LAVADO Y MANTENIMIENTO,Searchable,Subclase,J0201010401-AEROSOL;J0201010403-OTROS DESOD.AMB.;J0201010402-ELECTRICOS,Searchable
DETERGENTES,detergentes,Nombre,TEXT,Searchable,Descripcion,,Searchable,Marca,ARIEL;SKIP;SAPOLIO;TOTTUS;PRECIO UNO;BOLIVAR;OPAL;LA OCA;ACE;MAGIA BLANCA;MARSELLA;DREFT;WOOLITE;DIAMANTE;TIDE;CARICIA;AMOR,Searchable,Departamento,J0201-LAVADO Y MANTENIMIENTO,Searchable,Subclase,J0201020102-DETERGENTE EN POLVO;J0201020101-DETERGENTE EN LIQUIDO;J0201020103-JABON,Searchable
ESCOBAS,escobas,Nombre,TEXT,Searchable,Descripcion,,Searchable,Marca,VIRUTEX;NORHYGIENIC;HUDE;SCOTCH BRITE;TOTTUS;PRECIO UNO,Searchable,Departamento,J0201-LAVADO Y MANTENIMIENTO,Searchable,Subclase,J0201010804-ESCOBAS;J0201020303-ACCESORIOS DE CALZADO,Searchable
ESPONJAS,esponjas,Nombre,TEXT,Searchable,Descripcion,,Searchable,Marca,SCOTCH BRITE;TOTTUS;VIRUTEX;PRECIO UNO,Searchable,Departamento,J0201-LAVADO Y MANTENIMIENTO,Searchable,Subclase,J0201010801-ESPONJAS,Searchable
FILM_DE_COCINA,film de cocina,Nombre,TEXT,Searchable,Descripcion,,Searchable,Marca,TOTTUS;U-THIL,Searchable,Departamento,J0201-LAVADO Y MANTENIMIENTO,Searchable,Subclase,J0201010105-PLASTICO,Searchable
GUANTES,guantes,Nombre,TEXT,Searchable,Descripcion,,Searchable,Marca,ETERNA;TOTTUS;VIRUTEX;PRECIO UNO,Searchable,Departamento,J0201-LAVADO Y MANTENIMIENTO,Searchable,Subclase,J0201010802-GUANTES,Searchable
INSECTICIDA/RATICIDA,insecticida/raticida,Nombre,TEXT,Searchable,Descripcion,,Searchable,Marca,RADARCAN;SAPOLIO;BOLASECA;VAPE;MDTECH;PLOP;BAYGON;RAID;XTRIM;MR GARDEN,Searchable,Departamento,J0201-LAVADO Y MANTENIMIENTO,Searchable,Subclase,J0201010501-INSECTICIDA;J0201010503-RATICIDA,Searchable
INUMOS_PARA_PARRILLAS,inumos para parrillas,Nombre,TEXT,Searchable,Descripcion,,Searchable,Marca,INTI;TOTTUS;BRAZA;NEGRITO;MISIONERA;LIGHTY CANDLES,Searchable,Departamento,J0201-LAVADO Y MANTENIMIENTO,Searchable,Subclase,J0201011103-FOSFOROS;J0201011102-CARBON Y LEÑA;J0201011104-VELAS,Searchable
LAVAVAJILLAS,lavavajillas,Nombre,TEXT,Searchable,Descripcion,,Searchable,Marca,SAPOLIO;CIF;TOTTUS;LA OCA;AYUDIN;SALVY NATURAL;PRECIO UNO;MARSELLA,Searchable,Departamento,J0201-LAVADO Y MANTENIMIENTO,Searchable,Subclase,J0201010602-LIQUIDOS;J0201010601-EN PASTA,Searchable
LEJÍAS,lejías,Nombre,TEXT,Searchable,Descripcion,,Searchable,Marca,PRECIO UNO;SAPOLIO;TOTTUS;CLOROX,Searchable,Departamento,J0201-LAVADO Y MANTENIMIENTO,Searchable,Subclase,J0201010302-TRADICIONAL;J0201010301-AROMAS,Searchable
LIMPIADORES,limpiadores,Nombre,TEXT,Searchable,Descripcion,,Searchable,Marca,SAPOLIO;BRONCEX;CIF;POETT;TOTTUS;PRECIO UNO;LT-20;DR BECKMANN;PATO;MR MUSCULO;HARPIC;DIAMANTE;MR CLEANER;BINNER;QUEEN;DUKTO;PRIDE;PREMIO;NEW LOOK;PLATEX;FIBREK;LA OCA;MASTER PORCELANATO;MASTER;CLOROX;LYSOL;PINESOL,Searchable,Departamento,J0201-LAVADO Y MANTENIMIENTO,Searchable,Subclase,J0201010707-OTROS LIMPIADORES;J0201010709-METALES;J0201010703-LIMPIATODO;J0201010702-COCINA;J0201010701-BAÑO;J0201010706-LUSTRAMUEBLES;J0201010705-LIMPIA VIDRIOS Y MULTIUSOS;J0201010704-DESINFECTANTES;J0201010708-ALFOMBRAS,Searchable
MOPAS_FREGONERAS,mopas fregoneras,Nombre,TEXT,Searchable,Descripcion,,Searchable,Marca,TOTTUS;VIRUTEX;PRECIO UNO;HUDE,Searchable,Departamento,J0201-LAVADO Y MANTENIMIENTO,Searchable,Subclase,J0201010806-MOPAS FREGONERAS,Searchable
OTROS_ACCESORIOS_DE_LIMPIEZA,otros accesorios de limpieza,Nombre,TEXT,Searchable,Descripcion,,Searchable,Marca,R&G;ESSENTIAL EVERYDAY;VIRUTEX;TOTTUS;HUDE;NORHYGIENIC;PRECIO UNO;PAMOLSA;ANDINA,Searchable,Departamento,J0201-LAVADO Y MANTENIMIENTO,Searchable,Subclase,J0201011006-OTROS;J0201010810-OTROS;J0201010809-PAÑO TRAPEADOR;J0201010807-RECOGEDOR;J0201010808-HISOPO/DESATORADOR,Searchable
PAPELES_HIGIENICOS,papeles higienicos,Nombre,TEXT,Searchable,Descripcion,,Searchable,Marca,KLEENEX;ELITE;CASA NATURA;SUAVE;PRECIO UNO;COVERSIT;TOTTUS;NOBLE,Searchable,Departamento,J0201-LAVADO Y MANTENIMIENTO,Searchable,Subclase,J0201030203-TRIPLE HOJA;J0201030201-DOBLE HOJA;J0201030202-SIMPLE,Searchable
PAÑOS,paños,Nombre,TEXT,Searchable,Descripcion,,Searchable,Marca,TOTTUS;VIRUTEX;SCOTCH BRITE;PRECIO UNO;SCOTT,Searchable,Departamento,J0201-LAVADO Y MANTENIMIENTO,Searchable,Subclase,J0201010803-PAÑOS,Searchable
PAÑUELOS_DESECHABLES,pañuelos desechables,Nombre,TEXT,Searchable,Descripcion,,Searchable,Marca,KLEENEX;ELITE;TOTTUS,Searchable,Departamento,J0201-LAVADO Y MANTENIMIENTO,Searchable,Subclase,J0201030102-FACIAL;J0201030101-COMPACTO,Searchable
TOALLAS_DE_PAPEL,toallas de papel,Nombre,TEXT,Searchable,Descripcion,,Searchable,Marca,SCOTT;ELITE;NOVA;TOTTUS,Searchable,Departamento,J0201-LAVADO Y MANTENIMIENTO,Searchable,Subclase,J0201030402-HOJA SIMPLE;J0201030401-HOJA DOBLE,Searchable
TRATAMIENTO_DE_LA_ROPA,tratamiento de la ropa,Nombre,TEXT,Searchable,Descripcion,,Searchable,Marca,SAPOLIO;DOWNY;SUAVITEL;BOLIVAR;TOTTUS;CLOROX;AMOR;NIAGARA;DR BECKMANN;MR CLEANER;VANISH;OPAL;FEBREZE;SCOTCH GARD;PRECIO UNO;LA OCA;ARM-HAMMER,Searchable,Departamento,J0201-LAVADO Y MANTENIMIENTO,Searchable,Subclase,J0201020201-PRE LAVADO;J0201020203-SUAVIZANTES;J0201020202-POST LAVADO,Searchable
